id;code;path;host;port;user;passw;info;dbtype
1;CCSN_GSOF;files/CCSN_GSOF;;;;;gsof;TIMESERIE
2;UTAR_GSOF;files/UTAR_GSOF;;;;;gsof;TIMESERIE
3;VALN_GSOF;files/VALN_GSOF;;;;;gsof;TIMESERIE
4;MCLA_GSOF;files/MCLA_GSOF;;;;;gsof;TIMESERIE
5;AEDA_GSOF;files/AEDA_GSOF;;;;;gsof;TIMESERIE
6;QTAY_GSOF;files/QTAY_GSOF;;;;;gsof;TIMESERIE
7;UDAT_GSOF;files/UDAT_GSOF;;;;;gsof;TIMESERIE
8;TRPD_GSOF;files/TRPD_GSOF;;;;;gsof;TIMESERIE
9;JRGN_GSOF;files/JRGN_GSOF;;;;;gsof;TIMESERIE
10;NAVI_GSOF;files/NAVI_GSOF;;;;;gsof;TIMESERIE
